index
…
     Modifications:

        • From the COVIDcast Epidata API: These signals are taken
          directly from the JHU CSSE COVID-19 GitHub repository without
          changes. The 7-day average signals are computed by Delphi by
          calculating moving averages of the preceding 7 days, so the
          signal for June 7 is the average of the underlying data for
          June 1 through 7, inclusive.

An `epi_df` object, 20,496 x 4 with metadata:
* geo_type  = state
* time_type = day
* as_of     = 2022-05-31 12:08:25

# A tibble: 20,496 × 4
   geo_value time_value case_rate death_rate
 * <chr>     <date>         <dbl>      <dbl>
 1 ak        2020-12-31      35.9      0.158
 2 al        2020-12-31      65.1      0.438
 3 ar        2020-12-31      66.0      1.27 
 4 as        2020-12-31       0        0    
 5 az        2020-12-31      76.8      1.10 
 6 ca        2020-12-31      96.0      0.751
 7 co        2020-12-31      35.8      0.649
 8 ct        2020-12-31      52.1      0.819
 9 dc        2020-12-31      31.0      0.601
10 de        2020-12-31      65.2      0.807
# ℹ 20,486 more rows
…
